{
  "name": "14_PDF",
  "description": "Manejo de archivos de PDF",
  "main": "Main.xaml",
  "dependencies": {
    "UiPath.Excel.Activities": "[2.8.5]",
    "UiPath.Mail.Activities": "[1.8.5]",
    "UiPath.PDF.Activities": "[3.2.2]",
    "UiPath.System.Activities": "[20.4.0]",
    "UiPath.UIAutomation.Activities": "[20.4.1]"
  },
  "webServices": [],
  "schemaVersion": "4.0",
  "studioVersion": "20.4.1.0",
  "projectVersion": "1.0.0",
  "runtimeOptions": {
    "autoDispose": false,
    "isPausable": true,
    "requiresUserInteraction": true,
    "supportsPersistence": false,
    "excludedLoggedData": [
      "Private:*",
      "*password*"
    ],
    "executionType": "Workflow"
  },
  "designOptions": {
    "projectProfile": "Developement",
    "outputType": "Process",
    "libraryOptions": {
      "includeOriginalXaml": false,
      "privateWorkflows": []
    },
    "fileInfoCollection": []
  },
  "expressionLanguage": "VisualBasic"
}