{
  "name": "04_Variables",
  "description": "Variables en UiPath",
  "main": "Main.xaml",
  "dependencies": {
    "UiPath.Excel.Activities": "[2.8.2-preview]",
    "UiPath.Mail.Activities": "[1.8.2-preview]",
    "UiPath.System.Activities": "[20.3.0-preview]",
    "UiPath.UIAutomation.Activities": "[20.3.0-alpha]"
  },
  "webServices": [],
  "schemaVersion": "4.0",
  "studioVersion": "20.3.0.84",
  "projectVersion": "1.0.0",
  "runtimeOptions": {
    "autoDispose": false,
    "isPausable": true,
    "requiresUserInteraction": true,
    "supportsPersistence": false,
    "excludedLoggedData": [
      "Private:*",
      "*password*"
    ],
    "executionType": "Workflow"
  },
  "designOptions": {
    "projectProfile": "Developement",
    "outputType": "Process",
    "libraryOptions": {
      "includeOriginalXaml": false,
      "privateWorkflows": []
    },
    "fileInfoCollection": []
  },
  "expressionLanguage": "VisualBasic"
}